[
  "hubot-business-cat",
  "hubot-codinglove",
  "hubot-darts",
  "hubot-diagnostics",
  "hubot-dogeme",
  "hubot-help",
  "hubot-heroku-keepalive",
  "hubot-outofcontext",
  "hubot-plusplus",
  "hubot-principles",
  "hubot-pugme",
  "hubot-redis-brain",
  "hubot-rules",
  "hubot-seen",
  "hubot-sentimental",
  "hubot-seriouslyguys",
  "hubot-shipit",
  "hubot-soon",
  "hubot-tell",
  "hubot-thank-you",
  "hubot-thesimpsons",
  "hubot-tweets",
  "hubot-victory"
]